<?xml version="1.0" encoding="utf-8"?>
<!-- Generator: Adobe Illustrator 21.0.0, SVG Export Plug-In . SVG Version: 6.00 Build 0)  -->
<svg version="1.1" id="Calque_1" xmlns="http://www.w3.org/2000/svg" xmlns:xlink="http://www.w3.org/1999/xlink" x="0px" y="0px"
	 viewBox="0 0 33 42.1" style="enable-background:new 0 0 33 42.1;" xml:space="preserve">
<style type="text/css">
	.st0{fill:#FBFBFB;}
</style>
<path class="st0" d="M32.3,24L18.5,10.3c-0.4-0.4-1-0.6-1.6-0.6s-1.1,0.2-1.6,0.6L1.6,24c-0.4,0.4-0.6,1-0.6,1.6s0.2,1.1,0.6,1.6
	L15.4,41c0.4,0.4,1,0.6,1.6,0.6s1.1-0.2,1.6-0.6l13.8-13.8c0.4-0.4,0.6-1,0.6-1.6S32.7,24.5,32.3,24z M18.9,33.8h-4v-4.2h4V33.8z
	 M18.9,27.1h-4v-8.7h4V27.1z"/>
</svg>
