<?xml version="1.0" encoding="utf-8"?>
<!-- Generator: Adobe Illustrator 21.0.0, SVG Export Plug-In . SVG Version: 6.00 Build 0)  -->
<svg version="1.1" id="Calque_1" xmlns="http://www.w3.org/2000/svg" xmlns:xlink="http://www.w3.org/1999/xlink" x="0px" y="0px"
	 viewBox="0 0 131 180.4" style="enable-background:new 0 0 131 180.4;" xml:space="preserve">
<style type="text/css">
	.st0{fill:#FCFBF7;}
</style>
<path class="st0" d="M22.6,22.5c0-2.8,1.2-5.4,3.1-7.4c2-2,4.6-3.1,7.4-3.1c2.1,0,4.1,0.6,5.9,1.8c1.7,1.2,3.1,2.8,3.9,4.7
	c0.8,1.9,1,4,0.6,6.1c-0.4,2-1.4,3.9-2.9,5.4c-1.5,1.5-3.4,2.5-5.4,2.9c-2,0.4-4.2,0.2-6.1-0.6c-1.9-0.8-3.6-2.2-4.7-3.9
	C23.2,26.6,22.6,24.6,22.6,22.5L22.6,22.5z"/>
<path class="st0" d="M16,33.9c1.4,0,2.8,0.3,4,0.8c1.3,0.5,2.4,1.3,3.4,2.3c1,1,1.8,2.1,2.3,3.4c0.5,1.3,0.8,2.6,0.8,4
	c0,1.4-0.2,2.8-0.7,4c-0.5,1.3-1.3,2.5-2.3,3.4c-1,1-2.2,1.7-3.4,2.3c-1.3,0.5-2.7,0.8-4.1,0.7c-1.4,0-2.8-0.3-4-0.8
	c-1.3-0.5-2.4-1.3-3.4-2.3c-1-1-1.8-2.1-2.3-3.4c-0.5-1.3-0.8-2.6-0.8-4c0-2.8,1.2-5.4,3.1-7.4C10.5,35.1,13.2,34,16,33.9L16,33.9z"
	/>
<path class="st0" d="M43.4,37.9c2.1,0,4.1,0.6,5.8,1.8c1.7,1.2,3.1,2.8,3.9,4.7c0.8,1.9,1,4,0.6,6.1c-0.4,2-1.4,3.9-2.9,5.4
	c-1.5,1.5-3.3,2.5-5.4,2.9c-2,0.4-4.2,0.2-6.1-0.6c-1.9-0.8-3.6-2.1-4.7-3.9c-1.2-1.7-1.8-3.8-1.8-5.8c0-1.4,0.3-2.8,0.8-4
	c0.5-1.3,1.3-2.4,2.3-3.4c1-1,2.1-1.7,3.4-2.3C40.6,38.2,42,37.9,43.4,37.9L43.4,37.9z"/>
<path class="st0" d="M98.6,82.3c0,2.1-0.6,4.1-1.8,5.9c-1.2,1.7-2.8,3.1-4.7,3.9c-1.9,0.8-4,1-6.1,0.6c-2-0.4-3.9-1.4-5.4-2.9
	c-1.5-1.5-2.5-3.3-2.9-5.4c-0.4-2-0.2-4.2,0.6-6.1c0.8-1.9,2.2-3.6,3.9-4.7c1.7-1.2,3.8-1.8,5.9-1.8c1.4,0,2.8,0.3,4,0.8
	c1.3,0.5,2.4,1.3,3.4,2.3c1,1,1.8,2.1,2.3,3.4C98.3,79.6,98.6,81,98.6,82.3z"/>
<path class="st0" d="M22.6,72.1c0,2.1-0.6,4.1-1.8,5.8c-1.2,1.7-2.8,3.1-4.7,3.9c-1.9,0.8-4,1-6.1,0.6c-2-0.4-3.9-1.4-5.4-2.9
	c-1.5-1.5-2.5-3.3-2.9-5.4c-0.4-2-0.2-4.1,0.6-6.1c0.8-1.9,2.1-3.6,3.9-4.7c1.7-1.2,3.8-1.8,5.8-1.8c1.4,0,2.8,0.3,4,0.8
	c1.3,0.5,2.4,1.3,3.4,2.3c1,1,1.8,2.1,2.3,3.4C22.4,69.3,22.6,70.7,22.6,72.1z"/>
<path class="st0" d="M72.2,129.6c-2.1,0-4.1-0.6-5.8-1.8c-1.7-1.2-3.1-2.8-3.9-4.7c-0.8-1.9-1-4-0.6-6.1c0.4-2,1.4-3.9,2.9-5.4
	c1.5-1.5,3.3-2.5,5.4-2.9c2-0.4,4.2-0.2,6.1,0.6c1.9,0.8,3.6,2.1,4.7,3.9c1.2,1.7,1.8,3.8,1.8,5.8c0,2.8-1.2,5.4-3.1,7.4
	C77.7,128.4,75,129.6,72.2,129.6L72.2,129.6z"/>
<path class="st0" d="M69.1,48.2c-2.8,0-5.4-1.2-7.4-3.1c-2-2-3.1-4.6-3.1-7.4c0.1-2.7,1.3-5.3,3.2-7.1c2-1.9,4.6-2.9,7.3-2.9
	c2.7,0,5.3,1,7.3,2.9c2,1.9,3.1,4.4,3.2,7.1c0,1.4-0.2,2.8-0.7,4.1c-0.5,1.3-1.3,2.5-2.3,3.4c-1,1-2.2,1.8-3.4,2.3
	C71.9,48,70.5,48.2,69.1,48.2z"/>
<path class="st0" d="M91.6,44.1c1.4,0,2.8,0.3,4,0.8c1.3,0.5,2.4,1.3,3.4,2.3c1,1,1.8,2.1,2.3,3.4c0.5,1.3,0.8,2.6,0.8,4
	c0,1.4-0.2,2.8-0.7,4.1c-0.5,1.3-1.3,2.5-2.3,3.4c-1,1-2.2,1.8-3.4,2.3c-1.3,0.5-2.7,0.8-4.1,0.7c-1.4,0-2.8-0.3-4-0.8
	c-1.3-0.5-2.4-1.3-3.4-2.3c-1-1-1.8-2.1-2.3-3.4c-0.5-1.3-0.8-2.6-0.8-4c-0.1-1.4,0.2-2.8,0.7-4.1C82.2,49.2,83,48,84,47
	s2.2-1.8,3.5-2.3C88.8,44.3,90.2,44,91.6,44.1L91.6,44.1z"/>
<path class="st0" d="M98.4,33c0-2.1,0.6-4.1,1.8-5.8c1.2-1.7,2.8-3.1,4.7-3.9c1.9-0.8,4-1,6.1-0.6c2,0.4,3.9,1.4,5.4,2.9
	c1.5,1.5,2.5,3.3,2.9,5.4c0.4,2,0.2,4.2-0.6,6.1c-0.8,1.9-2.1,3.6-3.9,4.7c-1.7,1.2-3.8,1.8-5.9,1.8c-1.4,0-2.8-0.3-4-0.8
	c-1.3-0.5-2.4-1.3-3.4-2.3c-1-1-1.8-2.1-2.3-3.4C98.6,35.8,98.4,34.4,98.4,33L98.4,33z"/>
<path class="st0" d="M119.3,48.5c1.4,0,2.8,0.3,4,0.8c1.3,0.5,2.4,1.3,3.4,2.3c1,1,1.8,2.1,2.3,3.4c0.5,1.3,0.8,2.6,0.8,4
	c0,2.8-1.2,5.4-3.1,7.4c-2,2-4.6,3.1-7.4,3.1c-1.4,0-2.8-0.3-4-0.8c-1.3-0.5-2.4-1.3-3.4-2.3c-1-1-1.8-2.1-2.3-3.4
	c-0.5-1.3-0.8-2.6-0.8-4c-0.1-1.4,0.2-2.8,0.7-4.1c0.5-1.3,1.3-2.5,2.3-3.5c1-1,2.2-1.8,3.5-2.3C116.5,48.7,117.9,48.4,119.3,48.5
	L119.3,48.5z"/>
<path class="st0" d="M65.6,75.9c-2.1,0-4.1-0.6-5.9-1.8c-1.7-1.2-3.1-2.8-3.9-4.7c-0.8-1.9-1-4-0.6-6.1c0.4-2,1.4-3.9,2.9-5.4
	c1.5-1.5,3.3-2.5,5.4-2.9c2-0.4,4.2-0.2,6.1,0.6c1.9,0.8,3.6,2.1,4.7,3.9c1.2,1.7,1.8,3.8,1.8,5.8c0.1,1.4-0.2,2.8-0.7,4.1
	S74.2,72,73.2,73c-1,1-2.2,1.8-3.5,2.3C68.4,75.8,67,76,65.6,75.9L65.6,75.9z"/>
<path class="st0" d="M86.9,26.3c-2.1,0-4.1-0.6-5.8-1.8c-1.7-1.2-3.1-2.8-3.9-4.7c-0.8-1.9-1-4-0.6-6.1c0.4-2,1.4-3.9,2.9-5.4
	c1.5-1.5,3.4-2.5,5.4-2.9c2-0.4,4.2-0.2,6.1,0.6c1.9,0.8,3.6,2.2,4.7,3.9c1.1,1.7,1.8,3.8,1.8,5.8c0,1.4-0.3,2.7-0.8,4
	c-0.5,1.3-1.3,2.4-2.3,3.4c-1,1-2.1,1.7-3.4,2.3C89.7,26.1,88.3,26.3,86.9,26.3z"/>
<path class="st0" d="M108.8,108.6c0,2.8-1.2,5.4-3.1,7.4c-2,2-4.6,3.1-7.4,3.1c-2.1,0-4.1-0.6-5.9-1.8c-1.7-1.2-3.1-2.8-3.9-4.7
	c-0.8-1.9-1-4-0.6-6.1c0.4-2,1.4-3.9,2.9-5.4c1.5-1.5,3.4-2.5,5.4-2.9c2-0.4,4.2-0.2,6.1,0.6c1.9,0.8,3.6,2.2,4.7,3.9
	C108.3,104.5,108.9,106.5,108.8,108.6L108.8,108.6z"/>
<path class="st0" d="M50.4,76.5c0,2.8-1.1,5.5-3.1,7.4c-2,2-4.6,3.1-7.4,3.1c-2.8,0-5.5-1.1-7.4-3.1c-2-2-3.1-4.6-3.1-7.4
	c0.1-2.8,1.2-5.5,3.3-7.5c2-2,4.7-3,7.6-3c2.7,0.1,5.3,1.2,7.3,3.1C49.3,71.1,50.4,73.8,50.4,76.5L50.4,76.5z"/>
<path class="st0" d="M125.8,86.4c0,2.1-0.6,4.1-1.8,5.9c-1.2,1.7-2.8,3.1-4.7,3.9c-1.9,0.8-4,1-6.1,0.6c-2-0.4-3.9-1.4-5.4-2.9
	c-1.5-1.5-2.5-3.3-2.9-5.4s-0.2-4.2,0.6-6.1c0.8-1.9,2.2-3.6,3.9-4.7c1.7-1.2,3.8-1.8,5.9-1.8c1.4,0,2.8,0.2,4.1,0.7
	c1.3,0.5,2.5,1.3,3.4,2.3c1,1,1.8,2.2,2.3,3.4C125.6,83.7,125.8,85,125.8,86.4L125.8,86.4z"/>
<path class="st0" d="M33.2,97.8c0,2.1-0.6,4.1-1.8,5.8c-1.2,1.7-2.8,3.1-4.7,3.9c-1.9,0.8-4,1-6.1,0.6c-2-0.4-3.9-1.4-5.4-2.9
	c-1.5-1.5-2.5-3.3-2.9-5.4c-0.4-2-0.2-4.2,0.6-6.1c0.8-1.9,2.1-3.6,3.9-4.7c1.7-1.2,3.8-1.8,5.9-1.8c2.8,0,5.4,1.1,7.4,3.1
	C32,92.4,33.1,95,33.2,97.8L33.2,97.8z"/>
<path class="st0" d="M62.4,103.6c-2.8,0-5.4-1.2-7.4-3.1c-2-2-3.1-4.6-3.1-7.4c0-2.1,0.6-4.1,1.8-5.8c1.2-1.7,2.8-3.1,4.7-3.9
	c1.9-0.8,4-1,6.1-0.6c2,0.4,3.9,1.4,5.4,2.9c1.5,1.5,2.5,3.3,2.9,5.4c0.4,2,0.2,4.2-0.6,6.1c-0.8,1.9-2.2,3.6-3.9,4.7
	C66.5,103,64.4,103.7,62.4,103.6L62.4,103.6z"/>
<path class="st0" d="M69.7,12c0,2.1-0.6,4.1-1.8,5.8c-1.2,1.7-2.8,3.1-4.7,3.9c-1.9,0.8-4,1-6.1,0.6c-2-0.4-3.9-1.4-5.4-2.9
	s-2.5-3.3-2.9-5.4c-0.4-2-0.2-4.2,0.6-6.1c0.8-1.9,2.1-3.6,3.9-4.7c1.7-1.2,3.8-1.8,5.9-1.8c1.4,0,2.8,0.3,4,0.8
	c1.3,0.5,2.4,1.3,3.4,2.3c1,1,1.8,2.1,2.3,3.4C69.4,9.3,69.7,10.6,69.7,12L69.7,12z"/>
<path class="st0" d="M55.1,115c0,1.4-0.3,2.7-0.8,4c-0.5,1.3-1.3,2.4-2.3,3.4c-1,1-2.1,1.7-3.4,2.3c-1.3,0.5-2.6,0.8-4,0.8
	c-1.4,0-2.8-0.2-4.2-0.7c-1.3-0.5-2.5-1.3-3.5-2.3c-1-1-1.8-2.2-2.4-3.5c-0.5-1.3-0.8-2.7-0.8-4.1c0-1.4,0.3-2.8,0.9-4.1
	c0.6-1.3,1.4-2.5,2.4-3.4c1-1,2.3-1.7,3.6-2.2c1.3-0.5,2.8-0.7,4.2-0.6c2.7,0.1,5.4,1.2,7.3,3.2C54,109.6,55.1,112.3,55.1,115
	L55.1,115z"/>
<path class="st0" d="M10.4,173l3.5-12.8h5.3l-6.4,19H7.9l-6.4-19h5.3L10.4,173z"/>
<path class="st0" d="M20.6,155.3c0-0.4,0-0.7,0.2-1c0.1-0.3,0.3-0.6,0.6-0.9c0.6-0.5,1.3-0.7,2.1-0.7c0.8,0,1.5,0.3,2.1,0.7
	c0.5,0.5,0.8,1.2,0.8,1.9c0,0.7-0.3,1.4-0.8,1.9c-0.5,0.5-1.3,0.8-2,0.7c-0.7,0-1.5-0.2-2-0.7c-0.3-0.2-0.5-0.5-0.7-0.8
	C20.7,156,20.6,155.7,20.6,155.3z M26,179.3h-5.1v-19H26V179.3z"/>
<path class="st0" d="M35.4,155.5v4.7h3.3v3.7h-3.3v9.5c0,0.5,0.1,1.1,0.4,1.5c0.2,0.2,0.5,0.3,0.7,0.4c0.3,0.1,0.5,0.1,0.8,0.1
	c0.5,0,1,0,1.5-0.1v3.9c-1,0.3-2,0.5-3.1,0.5c-0.7,0.1-1.5,0-2.2-0.2c-0.7-0.2-1.3-0.6-1.9-1.2c-0.5-0.5-0.9-1.2-1.2-1.9
	c-0.2-0.7-0.3-1.4-0.2-2.2v-10.3h-2.8v-3.7h2.8v-4.7H35.4z"/>
<path class="st0" d="M52,179.3c-0.3-0.5-0.4-1.1-0.5-1.7c-0.6,0.7-1.4,1.2-2.2,1.5c-0.8,0.3-1.7,0.5-2.6,0.5
	c-1.7,0.1-3.4-0.5-4.6-1.6c-0.6-0.5-1-1.1-1.4-1.8c-0.3-0.7-0.5-1.4-0.5-2.2c0-0.9,0.1-1.8,0.5-2.6c0.4-0.8,1-1.5,1.7-2
	c1.9-1.2,4.2-1.8,6.5-1.6h2.4v-1.1c0-0.7-0.2-1.4-0.7-2c-0.3-0.3-0.6-0.5-1-0.6c-0.4-0.1-0.8-0.2-1.2-0.2c-0.7,0-1.4,0.2-2,0.6
	c-0.2,0.2-0.4,0.5-0.6,0.8c-0.1,0.3-0.2,0.6-0.2,0.9h-5.1c0-1.1,0.4-2.2,1-3.1c0.8-1,1.8-1.7,2.9-2.2c1.3-0.5,2.8-0.8,4.2-0.8
	c2-0.1,4,0.5,5.6,1.8c0.7,0.6,1.2,1.4,1.6,2.2c0.3,0.9,0.5,1.8,0.4,2.7v8.2c-0.1,1.4,0.2,2.8,0.8,4.1v0.3L52,179.3z M47.7,175.7
	c0.7,0,1.4-0.2,2-0.5c0.6-0.3,1.1-0.8,1.4-1.3v-3.3h-2c-2.6,0-3.9,0.9-4,2.6v0.3c0,0.3,0,0.6,0.2,0.9c0.1,0.3,0.3,0.5,0.5,0.7
	c0.3,0.2,0.6,0.4,0.9,0.5C47,175.7,47.4,175.7,47.7,175.7L47.7,175.7z"/>
<path class="st0" d="M76.4,169.9c0.1,2.5-0.6,5-2,7.1c-0.6,0.8-1.5,1.5-2.4,1.9c-1,0.4-2,0.7-3,0.6c-1,0-1.9-0.2-2.8-0.6
	c-0.9-0.4-1.6-1-2.2-1.8l-0.2,2h-4.5v-27h5v9.7c0.6-0.7,1.3-1.2,2.1-1.5c0.8-0.3,1.7-0.5,2.5-0.5c1.1-0.1,2.1,0.1,3.1,0.6
	c1,0.4,1.8,1.1,2.5,1.9c1.5,2.1,2.2,4.6,2,7.2L76.4,169.9z M71.3,169.5c0.1-1.5-0.2-2.9-0.9-4.2c-0.3-0.4-0.7-0.8-1.2-1
	c-0.5-0.2-1-0.3-1.5-0.3c-0.7-0.1-1.4,0.1-2,0.5c-0.6,0.4-1.1,0.9-1.4,1.5v7.5c0.3,0.6,0.8,1.2,1.4,1.5c0.6,0.4,1.3,0.5,2,0.5
	c0.7,0,1.5-0.2,2.1-0.6c0.6-0.4,1-1.1,1.2-1.8C71.2,171.9,71.3,170.7,71.3,169.5z"/>
<path class="st0" d="M89.7,177.3c-0.6,0.8-1.4,1.4-2.3,1.8c-0.9,0.4-1.9,0.6-2.9,0.5c-0.9,0.1-1.7-0.1-2.5-0.4
	c-0.8-0.3-1.5-0.8-2.2-1.4c-1.2-1.5-1.8-3.3-1.6-5.2v-12.5h5.1v12.3c0,2,0.9,3,2.7,3c0.7,0.1,1.4-0.1,2-0.4c0.6-0.3,1.2-0.8,1.5-1.4
	v-13.5h5.1v19h-4.8L89.7,177.3z"/>
<path class="st0" d="M102.4,179.3h-5.1v-27h5.1V179.3z"/>
<path class="st0" d="M110.4,179.3h-5v-27h5V179.3z"/>
<path class="st0" d="M122,179.6c-1.3,0.1-2.5-0.1-3.7-0.6c-1.2-0.4-2.2-1.1-3.2-2c-0.9-0.9-1.6-2-2-3.1c-0.5-1.2-0.7-2.4-0.6-3.7
	v-0.5c0-1.8,0.4-3.5,1.1-5.1c0.7-1.4,1.8-2.7,3.2-3.5c1.4-0.8,3-1.3,4.6-1.2c1.1-0.1,2.3,0.1,3.4,0.6c1.1,0.4,2,1.1,2.8,1.9
	c1.6,2,2.4,4.5,2.3,7v2h-12.1c0.1,1.1,0.6,2.2,1.5,3c0.9,0.8,2,1.2,3.2,1.1c0.9,0,1.8-0.1,2.6-0.5c0.8-0.4,1.5-0.9,2-1.6l2.5,2.8
	c-0.8,1.1-1.9,2-3.1,2.5C125,179.3,123.5,179.6,122,179.6L122,179.6z M121.4,164c-0.5,0-0.9,0.1-1.3,0.2c-0.4,0.2-0.8,0.4-1.1,0.8
	c-0.7,0.8-1.1,1.9-1.2,2.9h7.1v-0.4c0-1-0.3-1.9-0.9-2.6c-0.3-0.3-0.7-0.6-1.2-0.7C122.4,164,121.9,163.9,121.4,164L121.4,164z"/>
</svg>
