<?xml version="1.0" encoding="utf-8"?>
<!-- Generator: Adobe Illustrator 21.0.0, SVG Export Plug-In . SVG Version: 6.00 Build 0)  -->
<svg version="1.1" id="Calque_1" xmlns="http://www.w3.org/2000/svg" xmlns:xlink="http://www.w3.org/1999/xlink" x="0px" y="0px"
	 viewBox="0 0 20.9 24" style="enable-background:new 0 0 20.9 24;" xml:space="preserve">
<style type="text/css">
	.st0{fill:#FBFBFB;}
</style>
<path class="st0" d="M20.1,12.7l-8.7-8.7c-0.3-0.3-0.6-0.4-1-0.4c-0.4,0-0.7,0.1-1,0.4l-8.7,8.7c-0.3,0.3-0.4,0.6-0.4,1
	c0,0.4,0.1,0.7,0.4,1l8.7,8.7c0.3,0.3,0.6,0.4,1,0.4s0.7-0.1,1-0.4l8.7-8.7c0.3-0.3,0.4-0.6,0.4-1C20.5,13.4,20.3,13.1,20.1,12.7z
	 M11.6,18.9H9v-2.7h2.5V18.9z M11.6,14.7H9V9.2h2.5V14.7z"/>
</svg>
