{
    "ambience":
        [
            ["bkg_water_01", "Eau n°1"],
            ["bkg_water_02", "Eau n°2"]
        ],
    "breath":
        [
            ["breath_quiet_01", "Tranquillité"],
            ["breath_inspire_02", "Inspiration"]
        ]
}